/* XPM */
const char * doubleanalyser_xpm[] = {
"22 22 5 1",
" 	c None",
".	c #FF0000",
"+	c #00FF00",
"@	c #18E700",
"#	c #06F900",
"   .             +    ",
"                 +    ",
"                 +    ",
".. ...  ...  ..  @... ",
"   .             #    ",
"   .             +    ",
"                 +    ",
"                 +    ",
"   .             +    ",
"   .             +    ",
"   .             +    ",
"                 +    ",
"                 +    ",
"   .             +    ",
"   .             +    ",
"   .             +    ",
"                 +    ",
"+++@#+++++++++++++++++",
"   .             +    ",
"   .             +    ",
"                 +    ",
"                 +    "};
